Visualize wGRR plasmid networks
…
wgrr_pairs_species %>% group_by(species_pair) %>% 
  summarise(mean = mean(wGRR),
            median = median(wGRR), 
            min = min(wGRR),
            max = max(wGRR))

## # A tibble: 450 × 5
##    species_pair                                        mean median    min    max
##    <chr>                                              <dbl>  <dbl>  <dbl>  <dbl>
##  1 Xanthomonas albilineans-Xanthomonas albilineans   0.236  0.119  0.0594 0.868 
##  2 Xanthomonas albilineans-Xanthomonas arboricola    0.0558 0.0502 0      0.138 
##  3 Xanthomonas albilineans-Xanthomonas axonopodis    0.0391 0.0217 0      0.150 
##  4 Xanthomonas albilineans-Xanthomonas campestris    0.0504 0.0211 0      0.718 
##  5 Xanthomonas albilineans-Xanthomonas citri         0.0452 0.0348 0      0.517 
##  6 Xanthomonas albilineans-Xanthomonas cucurbitae    0.0482 0      0      0.142 
##  7 Xanthomonas albilineans-Xanthomonas dyei          0      0      0      0     
##  8 Xanthomonas albilineans-Xanthomonas euroxanthea   0.398  0.398  0.0501 0.745 
##  9 Xanthomonas albilineans-Xanthomonas euvesicatoria 0.0319 0.0217 0      0.0918
## 10 Xanthomonas albilineans-Xanthomonas fragariae     0.112  0.0482 0      0.700 
## # ℹ 440 more rows
…
